This is BibTeX, Version 0.99d (TeX Live 2012)
Capacity: max_strings=35307, hash_size=35307, hash_prime=30011
The top-level auxiliary file: relazione_ucarpp_xd.aux
A level-1 auxiliary file: implementazione.aux
A level-1 auxiliary file: cost-4d2v.aux
A level-1 auxiliary file: tabu-4d2v.aux
The style file: plain.bst
Database file #1: bibliografia.bib
You've used 2 entries,
            2118 wiz_defined-function locations,
            515 strings with 4420 characters,
and the built_in function-call counts, 656 in all, are:
= -- 64
> -- 26
< -- 0
+ -- 10
- -- 8
* -- 46
:= -- 117
add.period$ -- 6
call.type$ -- 2
change.case$ -- 10
chr.to.int$ -- 0
cite$ -- 2
duplicate$ -- 22
empty$ -- 53
format.name$ -- 8
if$ -- 135
int.to.chr$ -- 0
int.to.str$ -- 2
missing$ -- 2
newline$ -- 13
num.names$ -- 4
pop$ -- 6
preamble$ -- 1
purify$ -- 8
quote$ -- 0
skip$ -- 16
stack$ -- 0
substring$ -- 52
swap$ -- 2
text.length$ -- 0
text.prefix$ -- 0
top$ -- 0
type$ -- 8
warning$ -- 0
while$ -- 6
width$ -- 3
write$ -- 24
